{
  "name": "web-community",
  "version": false,
  "ambientDependencies": {
    "core-js": "registry:dt/core-js#0.0.0+20160602141332",
    "jasmine": "registry:dt/jasmine#2.2.0+20160412134438",
    "node": "registry:dt/node#4.0.0+20160509154515"
  },
  "dependencies": {
    "es6-promise": "registry:npm/es6-promise#3.0.0+20160211003958",
    "lodash": "registry:npm/lodash#4.0.0+20160416211519"
  },
  "globalDependencies": {
    "core-js": "registry:dt/core-js#0.0.0+20160602141332",
    "jasmine": "registry:dt/jasmine#2.2.0+20160621224255",
    "node": "registry:dt/node#6.0.0+20160621231320"
  }
}
